-- Merging decision tree log ---
manifest
ADDED from /Users/user/Projects/step-counter-acelerometer/android-pedometer-master1/app/src/main/AndroidManifest.xml:2:1-39:12
	package
		ADDED from /Users/user/Projects/step-counter-acelerometer/android-pedometer-master1/app/src/main/AndroidManifest.xml:3:11-48
		INJECTED from /Users/user/Projects/step-counter-acelerometer/android-pedometer-master1/app/src/main/AndroidManifest.xml
		INJECTED from /Users/user/Projects/step-counter-acelerometer/android-pedometer-master1/app/src/main/AndroidManifest.xml
	android:versionName
		ADDED from /Users/user/Projects/step-counter-acelerometer/android-pedometer-master1/app/src/main/AndroidManifest.xml:6:11-38
		INJECTED from /Users/user/Projects/step-counter-acelerometer/android-pedometer-master1/app/src/main/AndroidManifest.xml
		INJECTED from /Users/user/Projects/step-counter-acelerometer/android-pedometer-master1/app/src/main/AndroidManifest.xml
	xmlns:tools
		ADDED from /Users/user/Projects/step-counter-acelerometer/android-pedometer-master1/app/src/main/AndroidManifest.xml:2:11-57
	android:versionCode
		ADDED from /Users/user/Projects/step-counter-acelerometer/android-pedometer-master1/app/src/main/AndroidManifest.xml:5:11-34
		INJECTED from /Users/user/Projects/step-counter-acelerometer/android-pedometer-master1/app/src/main/AndroidManifest.xml
		INJECTED from /Users/user/Projects/step-counter-acelerometer/android-pedometer-master1/app/src/main/AndroidManifest.xml
	xmlns:android
		ADDED from /Users/user/Projects/step-counter-acelerometer/android-pedometer-master1/app/src/main/AndroidManifest.xml:4:11-69
uses-sdk
ADDED from /Users/user/Projects/step-counter-acelerometer/android-pedometer-master1/app/src/main/AndroidManifest.xml:8:5-42
	android:targetSdkVersion
		INJECTED from /Users/user/Projects/step-counter-acelerometer/android-pedometer-master1/app/src/main/AndroidManifest.xml
		INJECTED from /Users/user/Projects/step-counter-acelerometer/android-pedometer-master1/app/src/main/AndroidManifest.xml
	android:minSdkVersion
		ADDED from /Users/user/Projects/step-counter-acelerometer/android-pedometer-master1/app/src/main/AndroidManifest.xml:8:15-40
		INJECTED from /Users/user/Projects/step-counter-acelerometer/android-pedometer-master1/app/src/main/AndroidManifest.xml
		INJECTED from /Users/user/Projects/step-counter-acelerometer/android-pedometer-master1/app/src/main/AndroidManifest.xml
uses-permission#android.permission.WAKE_LOCK
ADDED from /Users/user/Projects/step-counter-acelerometer/android-pedometer-master1/app/src/main/AndroidManifest.xml:10:5-67
	android:name
		ADDED from /Users/user/Projects/step-counter-acelerometer/android-pedometer-master1/app/src/main/AndroidManifest.xml:10:22-65
application
ADDED from /Users/user/Projects/step-counter-acelerometer/android-pedometer-master1/app/src/main/AndroidManifest.xml:12:5-37:19
	android:label
		ADDED from /Users/user/Projects/step-counter-acelerometer/android-pedometer-master1/app/src/main/AndroidManifest.xml:15:9-41
	android:debuggable
		ADDED from /Users/user/Projects/step-counter-acelerometer/android-pedometer-master1/app/src/main/AndroidManifest.xml:14:9-34
	android:allowBackup
		ADDED from /Users/user/Projects/step-counter-acelerometer/android-pedometer-master1/app/src/main/AndroidManifest.xml:13:9-35
	android:icon
		ADDED from /Users/user/Projects/step-counter-acelerometer/android-pedometer-master1/app/src/main/AndroidManifest.xml:16:9-58
activity#name.bagi.levente.pedometer.MainActivity
ADDED from /Users/user/Projects/step-counter-acelerometer/android-pedometer-master1/app/src/main/AndroidManifest.xml:17:9-25:20
	android:label
		ADDED from /Users/user/Projects/step-counter-acelerometer/android-pedometer-master1/app/src/main/AndroidManifest.xml:20:13-45
	android:configChanges
		ADDED from /Users/user/Projects/step-counter-acelerometer/android-pedometer-master1/app/src/main/AndroidManifest.xml:19:13-48
	android:name
		ADDED from /Users/user/Projects/step-counter-acelerometer/android-pedometer-master1/app/src/main/AndroidManifest.xml:18:13-41
intent-filter#android.intent.action.MAIN+android.intent.category.LAUNCHER
ADDED from /Users/user/Projects/step-counter-acelerometer/android-pedometer-master1/app/src/main/AndroidManifest.xml:21:13-24:29
action#android.intent.action.MAIN
ADDED from /Users/user/Projects/step-counter-acelerometer/android-pedometer-master1/app/src/main/AndroidManifest.xml:22:17-68
	android:name
		ADDED from /Users/user/Projects/step-counter-acelerometer/android-pedometer-master1/app/src/main/AndroidManifest.xml:22:25-66
category#android.intent.category.LAUNCHER
ADDED from /Users/user/Projects/step-counter-acelerometer/android-pedometer-master1/app/src/main/AndroidManifest.xml:23:17-76
	android:name
		ADDED from /Users/user/Projects/step-counter-acelerometer/android-pedometer-master1/app/src/main/AndroidManifest.xml:23:27-74
activity#name.bagi.levente.pedometer.Settings
ADDED from /Users/user/Projects/step-counter-acelerometer/android-pedometer-master1/app/src/main/AndroidManifest.xml:26:9-33:20
	android:label
		ADDED from /Users/user/Projects/step-counter-acelerometer/android-pedometer-master1/app/src/main/AndroidManifest.xml:28:13-54
	android:name
		ADDED from /Users/user/Projects/step-counter-acelerometer/android-pedometer-master1/app/src/main/AndroidManifest.xml:27:13-37
intent-filter#android.intent.action.MAIN+android.intent.category.DEFAULT
ADDED from /Users/user/Projects/step-counter-acelerometer/android-pedometer-master1/app/src/main/AndroidManifest.xml:29:13-32:29
category#android.intent.category.DEFAULT
ADDED from /Users/user/Projects/step-counter-acelerometer/android-pedometer-master1/app/src/main/AndroidManifest.xml:31:17-75
	android:name
		ADDED from /Users/user/Projects/step-counter-acelerometer/android-pedometer-master1/app/src/main/AndroidManifest.xml:31:27-73
service#name.bagi.levente.pedometer.StepService
ADDED from /Users/user/Projects/step-counter-acelerometer/android-pedometer-master1/app/src/main/AndroidManifest.xml:35:9-47
	android:name
		ADDED from /Users/user/Projects/step-counter-acelerometer/android-pedometer-master1/app/src/main/AndroidManifest.xml:35:18-45
